-- Merging decision tree log ---
manifest
ADDED from D:\DemoProjects\ReactNative\Albums\android\app\src\main\AndroidManifest.xml:1:1-26:12
INJECTED from D:\DemoProjects\ReactNative\Albums\android\app\src\main\AndroidManifest.xml:1:1-26:12
INJECTED from D:\DemoProjects\ReactNative\Albums\android\app\src\main\AndroidManifest.xml:1:1-26:12
INJECTED from D:\DemoProjects\ReactNative\Albums\android\app\src\main\AndroidManifest.xml:1:1-26:12
MERGED from [com.facebook.react:react-native:0.57.7] C:\Users\Preferred\.gradle\caches\transforms-1\files-1.1\react-native-0.57.7.aar\59b3ed175926357da6f2613790a9d737\AndroidManifest.xml:2:1-15:12
MERGED from [com.android.support:appcompat-v7:27.1.1] C:\Users\Preferred\.gradle\caches\transforms-1\files-1.1\appcompat-v7-27.1.1.aar\e7f9fd0311e9548d93f8016caff621b7\AndroidManifest.xml:17:1-22:12
MERGED from [com.android.support:support-fragment:27.1.1] C:\Users\Preferred\.gradle\caches\transforms-1\files-1.1\support-fragment-27.1.1.aar\a2d583fb39437ab863c0c07c98e6516a\AndroidManifest.xml:17:1-22:12
MERGED from [com.android.support:animated-vector-drawable:27.1.1] C:\Users\Preferred\.gradle\caches\transforms-1\files-1.1\animated-vector-drawable-27.1.1.aar\98c0c51d6cf4e1f5adde3d8c7409cf0c\AndroidManifest.xml:17:1-22:12
MERGED from [com.android.support:support-core-ui:27.1.1] C:\Users\Preferred\.gradle\caches\transforms-1\files-1.1\support-core-ui-27.1.1.aar\b1331a81efee6b4df58996c2c071986b\AndroidManifest.xml:17:1-22:12
MERGED from [com.android.support:support-core-utils:27.1.1] C:\Users\Preferred\.gradle\caches\transforms-1\files-1.1\support-core-utils-27.1.1.aar\a76668a68caa59e2a957ec68b1f415ee\AndroidManifest.xml:17:1-22:12
MERGED from [com.android.support:support-vector-drawable:27.1.1] C:\Users\Preferred\.gradle\caches\transforms-1\files-1.1\support-vector-drawable-27.1.1.aar\8f8468676cc9f4968bbe72933cc2e161\AndroidManifest.xml:17:1-22:12
MERGED from [com.android.support:support-compat:27.1.1] C:\Users\Preferred\.gradle\caches\transforms-1\files-1.1\support-compat-27.1.1.aar\4e258df4410ae32d0e68143202173487\AndroidManifest.xml:17:1-22:12
MERGED from [com.facebook.fresco:fresco:1.10.0] C:\Users\Preferred\.gradle\caches\transforms-1\files-1.1\fresco-1.10.0.aar\c8f2015228dec6798676d2ca7555abe8\AndroidManifest.xml:2:1-9:12
MERGED from [com.facebook.fresco:imagepipeline-okhttp3:1.10.0] C:\Users\Preferred\.gradle\caches\transforms-1\files-1.1\imagepipeline-okhttp3-1.10.0.aar\9c23b5758e092481ebeeee8ccefb9996\AndroidManifest.xml:2:1-9:12
MERGED from [com.facebook.fresco:drawee:1.10.0] C:\Users\Preferred\.gradle\caches\transforms-1\files-1.1\drawee-1.10.0.aar\2b27ba820b7a3bd136b4fffbbc59bc29\AndroidManifest.xml:2:1-9:12
MERGED from [com.facebook.fresco:imagepipeline:1.10.0] C:\Users\Preferred\.gradle\caches\transforms-1\files-1.1\imagepipeline-1.10.0.aar\e5f9dc47bc7db5fa42ae9d45dbd0d1bf\AndroidManifest.xml:2:1-9:12
MERGED from [com.facebook.fresco:imagepipeline-base:1.10.0] C:\Users\Preferred\.gradle\caches\transforms-1\files-1.1\imagepipeline-base-1.10.0.aar\bfa89b78d332df3b762a2b0fa1e71906\AndroidManifest.xml:2:1-9:12
MERGED from [com.facebook.soloader:soloader:0.5.1] C:\Users\Preferred\.gradle\caches\transforms-1\files-1.1\soloader-0.5.1.aar\8ea146858b2037a15f155d3d5aaf7805\AndroidManifest.xml:2:1-13:12
MERGED from [org.webkit:android-jsc:r174650] C:\Users\Preferred\.gradle\caches\transforms-1\files-1.1\android-jsc-r174650.aar\9309637b9ca2bf2e4301a47f17b7c9eb\AndroidManifest.xml:1:1-3:12
MERGED from [android.arch.lifecycle:livedata-core:1.1.0] C:\Users\Preferred\.gradle\caches\transforms-1\files-1.1\livedata-core-1.1.0.aar\4b7daa5e0205d7c6108a6eec1fa02b7c\AndroidManifest.xml:17:1-22:12
MERGED from [android.arch.lifecycle:viewmodel:1.1.0] C:\Users\Preferred\.gradle\caches\transforms-1\files-1.1\viewmodel-1.1.0.aar\f6224390e4185879134570fb0a8261a4\AndroidManifest.xml:17:1-22:12
MERGED from [com.facebook.fresco:fbcore:1.10.0] C:\Users\Preferred\.gradle\caches\transforms-1\files-1.1\fbcore-1.10.0.aar\a75d1a51cce159759d80e5f4481685eb\AndroidManifest.xml:2:1-9:12
MERGED from [android.arch.lifecycle:runtime:1.1.0] C:\Users\Preferred\.gradle\caches\transforms-1\files-1.1\runtime-1.1.0.aar\6fcd81995f11ac7626f4addedd385155\AndroidManifest.xml:17:1-22:12
MERGED from [android.arch.core:runtime:1.1.0] C:\Users\Preferred\.gradle\caches\transforms-1\files-1.1\runtime-1.1.0.aar\58f89463a3668739ad60ce311aad2132\AndroidManifest.xml:17:1-22:12
INJECTED from D:\DemoProjects\ReactNative\Albums\android\app\src\main\AndroidManifest.xml:1:1-26:12
INJECTED from D:\DemoProjects\ReactNative\Albums\android\app\src\main\AndroidManifest.xml:1:1-26:12
INJECTED from D:\DemoProjects\ReactNative\Albums\android\app\src\main\AndroidManifest.xml:1:1-26:12
	package
		ADDED from D:\DemoProjects\ReactNative\Albums\android\app\src\main\AndroidManifest.xml:2:5-25
		INJECTED from D:\DemoProjects\ReactNative\Albums\android\app\src\main\AndroidManifest.xml
		INJECTED from D:\DemoProjects\ReactNative\Albums\android\app\src\main\AndroidManifest.xml
	android:versionName
		INJECTED from D:\DemoProjects\ReactNative\Albums\android\app\src\main\AndroidManifest.xml
		ADDED from D:\DemoProjects\ReactNative\Albums\android\app\src\main\AndroidManifest.xml:1:1-26:12
		INJECTED from D:\DemoProjects\ReactNative\Albums\android\app\src\main\AndroidManifest.xml
	android:versionCode
		INJECTED from D:\DemoProjects\ReactNative\Albums\android\app\src\main\AndroidManifest.xml
		ADDED from D:\DemoProjects\ReactNative\Albums\android\app\src\main\AndroidManifest.xml:1:1-26:12
		INJECTED from D:\DemoProjects\ReactNative\Albums\android\app\src\main\AndroidManifest.xml
	xmlns:android
		ADDED from D:\DemoProjects\ReactNative\Albums\android\app\src\main\AndroidManifest.xml:1:11-69
uses-permission#android.permission.INTERNET
ADDED from D:\DemoProjects\ReactNative\Albums\android\app\src\main\AndroidManifest.xml:4:5-67
	android:name
		ADDED from D:\DemoProjects\ReactNative\Albums\android\app\src\main\AndroidManifest.xml:4:22-64
uses-permission#android.permission.SYSTEM_ALERT_WINDOW
ADDED from D:\DemoProjects\ReactNative\Albums\android\app\src\main\AndroidManifest.xml:5:5-77
MERGED from [com.facebook.react:react-native:0.57.7] C:\Users\Preferred\.gradle\caches\transforms-1\files-1.1\react-native-0.57.7.aar\59b3ed175926357da6f2613790a9d737\AndroidManifest.xml:11:5-78
MERGED from [com.facebook.react:react-native:0.57.7] C:\Users\Preferred\.gradle\caches\transforms-1\files-1.1\react-native-0.57.7.aar\59b3ed175926357da6f2613790a9d737\AndroidManifest.xml:11:5-78
	android:name
		ADDED from D:\DemoProjects\ReactNative\Albums\android\app\src\main\AndroidManifest.xml:5:22-75
application
ADDED from D:\DemoProjects\ReactNative\Albums\android\app\src\main\AndroidManifest.xml:7:5-24:19
MERGED from [com.facebook.react:react-native:0.57.7] C:\Users\Preferred\.gradle\caches\transforms-1\files-1.1\react-native-0.57.7.aar\59b3ed175926357da6f2613790a9d737\AndroidManifest.xml:13:5-20
MERGED from [com.facebook.react:react-native:0.57.7] C:\Users\Preferred\.gradle\caches\transforms-1\files-1.1\react-native-0.57.7.aar\59b3ed175926357da6f2613790a9d737\AndroidManifest.xml:13:5-20
MERGED from [com.facebook.soloader:soloader:0.5.1] C:\Users\Preferred\.gradle\caches\transforms-1\files-1.1\soloader-0.5.1.aar\8ea146858b2037a15f155d3d5aaf7805\AndroidManifest.xml:11:5-20
MERGED from [com.facebook.soloader:soloader:0.5.1] C:\Users\Preferred\.gradle\caches\transforms-1\files-1.1\soloader-0.5.1.aar\8ea146858b2037a15f155d3d5aaf7805\AndroidManifest.xml:11:5-20
MERGED from [org.webkit:android-jsc:r174650] C:\Users\Preferred\.gradle\caches\transforms-1\files-1.1\android-jsc-r174650.aar\9309637b9ca2bf2e4301a47f17b7c9eb\AndroidManifest.xml:2:3-17
MERGED from [org.webkit:android-jsc:r174650] C:\Users\Preferred\.gradle\caches\transforms-1\files-1.1\android-jsc-r174650.aar\9309637b9ca2bf2e4301a47f17b7c9eb\AndroidManifest.xml:2:3-17
	android:label
		ADDED from D:\DemoProjects\ReactNative\Albums\android\app\src\main\AndroidManifest.xml:9:7-39
	android:icon
		ADDED from D:\DemoProjects\ReactNative\Albums\android\app\src\main\AndroidManifest.xml:10:7-41
	android:allowBackup
		ADDED from D:\DemoProjects\ReactNative\Albums\android\app\src\main\AndroidManifest.xml:11:7-34
	android:theme
		ADDED from D:\DemoProjects\ReactNative\Albums\android\app\src\main\AndroidManifest.xml:12:7-38
	android:name
		ADDED from D:\DemoProjects\ReactNative\Albums\android\app\src\main\AndroidManifest.xml:8:7-38
activity#com.albums.MainActivity
ADDED from D:\DemoProjects\ReactNative\Albums\android\app\src\main\AndroidManifest.xml:13:7-22:18
	android:label
		ADDED from D:\DemoProjects\ReactNative\Albums\android\app\src\main\AndroidManifest.xml:15:9-41
	android:windowSoftInputMode
		ADDED from D:\DemoProjects\ReactNative\Albums\android\app\src\main\AndroidManifest.xml:17:9-51
	android:configChanges
		ADDED from D:\DemoProjects\ReactNative\Albums\android\app\src\main\AndroidManifest.xml:16:9-79
	android:name
		ADDED from D:\DemoProjects\ReactNative\Albums\android\app\src\main\AndroidManifest.xml:14:9-37
intent-filter#action:name:android.intent.action.MAIN+category:name:android.intent.category.LAUNCHER
ADDED from D:\DemoProjects\ReactNative\Albums\android\app\src\main\AndroidManifest.xml:18:9-21:25
action#android.intent.action.MAIN
ADDED from D:\DemoProjects\ReactNative\Albums\android\app\src\main\AndroidManifest.xml:19:13-65
	android:name
		ADDED from D:\DemoProjects\ReactNative\Albums\android\app\src\main\AndroidManifest.xml:19:21-62
category#android.intent.category.LAUNCHER
ADDED from D:\DemoProjects\ReactNative\Albums\android\app\src\main\AndroidManifest.xml:20:13-73
	android:name
		ADDED from D:\DemoProjects\ReactNative\Albums\android\app\src\main\AndroidManifest.xml:20:23-70
activity#com.facebook.react.devsupport.DevSettingsActivity
ADDED from D:\DemoProjects\ReactNative\Albums\android\app\src\main\AndroidManifest.xml:23:7-84
	android:name
		ADDED from D:\DemoProjects\ReactNative\Albums\android\app\src\main\AndroidManifest.xml:23:17-81
uses-sdk
INJECTED from D:\DemoProjects\ReactNative\Albums\android\app\src\main\AndroidManifest.xml reason: use-sdk injection requested
INJECTED from D:\DemoProjects\ReactNative\Albums\android\app\src\main\AndroidManifest.xml
INJECTED from D:\DemoProjects\ReactNative\Albums\android\app\src\main\AndroidManifest.xml
MERGED from [com.facebook.react:react-native:0.57.7] C:\Users\Preferred\.gradle\caches\transforms-1\files-1.1\react-native-0.57.7.aar\59b3ed175926357da6f2613790a9d737\AndroidManifest.xml:7:5-9:41
MERGED from [com.facebook.react:react-native:0.57.7] C:\Users\Preferred\.gradle\caches\transforms-1\files-1.1\react-native-0.57.7.aar\59b3ed175926357da6f2613790a9d737\AndroidManifest.xml:7:5-9:41
MERGED from [com.android.support:appcompat-v7:27.1.1] C:\Users\Preferred\.gradle\caches\transforms-1\files-1.1\appcompat-v7-27.1.1.aar\e7f9fd0311e9548d93f8016caff621b7\AndroidManifest.xml:20:5-44
MERGED from [com.android.support:appcompat-v7:27.1.1] C:\Users\Preferred\.gradle\caches\transforms-1\files-1.1\appcompat-v7-27.1.1.aar\e7f9fd0311e9548d93f8016caff621b7\AndroidManifest.xml:20:5-44
MERGED from [com.android.support:support-fragment:27.1.1] C:\Users\Preferred\.gradle\caches\transforms-1\files-1.1\support-fragment-27.1.1.aar\a2d583fb39437ab863c0c07c98e6516a\AndroidManifest.xml:20:5-44
MERGED from [com.android.support:support-fragment:27.1.1] C:\Users\Preferred\.gradle\caches\transforms-1\files-1.1\support-fragment-27.1.1.aar\a2d583fb39437ab863c0c07c98e6516a\AndroidManifest.xml:20:5-44
MERGED from [com.android.support:animated-vector-drawable:27.1.1] C:\Users\Preferred\.gradle\caches\transforms-1\files-1.1\animated-vector-drawable-27.1.1.aar\98c0c51d6cf4e1f5adde3d8c7409cf0c\AndroidManifest.xml:20:5-44
MERGED from [com.android.support:animated-vector-drawable:27.1.1] C:\Users\Preferred\.gradle\caches\transforms-1\files-1.1\animated-vector-drawable-27.1.1.aar\98c0c51d6cf4e1f5adde3d8c7409cf0c\AndroidManifest.xml:20:5-44
MERGED from [com.android.support:support-core-ui:27.1.1] C:\Users\Preferred\.gradle\caches\transforms-1\files-1.1\support-core-ui-27.1.1.aar\b1331a81efee6b4df58996c2c071986b\AndroidManifest.xml:20:5-44
MERGED from [com.android.support:support-core-ui:27.1.1] C:\Users\Preferred\.gradle\caches\transforms-1\files-1.1\support-core-ui-27.1.1.aar\b1331a81efee6b4df58996c2c071986b\AndroidManifest.xml:20:5-44
MERGED from [com.android.support:support-core-utils:27.1.1] C:\Users\Preferred\.gradle\caches\transforms-1\files-1.1\support-core-utils-27.1.1.aar\a76668a68caa59e2a957ec68b1f415ee\AndroidManifest.xml:20:5-44
MERGED from [com.android.support:support-core-utils:27.1.1] C:\Users\Preferred\.gradle\caches\transforms-1\files-1.1\support-core-utils-27.1.1.aar\a76668a68caa59e2a957ec68b1f415ee\AndroidManifest.xml:20:5-44
MERGED from [com.android.support:support-vector-drawable:27.1.1] C:\Users\Preferred\.gradle\caches\transforms-1\files-1.1\support-vector-drawable-27.1.1.aar\8f8468676cc9f4968bbe72933cc2e161\AndroidManifest.xml:20:5-44
MERGED from [com.android.support:support-vector-drawable:27.1.1] C:\Users\Preferred\.gradle\caches\transforms-1\files-1.1\support-vector-drawable-27.1.1.aar\8f8468676cc9f4968bbe72933cc2e161\AndroidManifest.xml:20:5-44
MERGED from [com.android.support:support-compat:27.1.1] C:\Users\Preferred\.gradle\caches\transforms-1\files-1.1\support-compat-27.1.1.aar\4e258df4410ae32d0e68143202173487\AndroidManifest.xml:20:5-44
MERGED from [com.android.support:support-compat:27.1.1] C:\Users\Preferred\.gradle\caches\transforms-1\files-1.1\support-compat-27.1.1.aar\4e258df4410ae32d0e68143202173487\AndroidManifest.xml:20:5-44
MERGED from [com.facebook.fresco:fresco:1.10.0] C:\Users\Preferred\.gradle\caches\transforms-1\files-1.1\fresco-1.10.0.aar\c8f2015228dec6798676d2ca7555abe8\AndroidManifest.xml:5:5-7:41
MERGED from [com.facebook.fresco:fresco:1.10.0] C:\Users\Preferred\.gradle\caches\transforms-1\files-1.1\fresco-1.10.0.aar\c8f2015228dec6798676d2ca7555abe8\AndroidManifest.xml:5:5-7:41
MERGED from [com.facebook.fresco:imagepipeline-okhttp3:1.10.0] C:\Users\Preferred\.gradle\caches\transforms-1\files-1.1\imagepipeline-okhttp3-1.10.0.aar\9c23b5758e092481ebeeee8ccefb9996\AndroidManifest.xml:5:5-7:41
MERGED from [com.facebook.fresco:imagepipeline-okhttp3:1.10.0] C:\Users\Preferred\.gradle\caches\transforms-1\files-1.1\imagepipeline-okhttp3-1.10.0.aar\9c23b5758e092481ebeeee8ccefb9996\AndroidManifest.xml:5:5-7:41
MERGED from [com.facebook.fresco:drawee:1.10.0] C:\Users\Preferred\.gradle\caches\transforms-1\files-1.1\drawee-1.10.0.aar\2b27ba820b7a3bd136b4fffbbc59bc29\AndroidManifest.xml:5:5-7:41
MERGED from [com.facebook.fresco:drawee:1.10.0] C:\Users\Preferred\.gradle\caches\transforms-1\files-1.1\drawee-1.10.0.aar\2b27ba820b7a3bd136b4fffbbc59bc29\AndroidManifest.xml:5:5-7:41
MERGED from [com.facebook.fresco:imagepipeline:1.10.0] C:\Users\Preferred\.gradle\caches\transforms-1\files-1.1\imagepipeline-1.10.0.aar\e5f9dc47bc7db5fa42ae9d45dbd0d1bf\AndroidManifest.xml:5:5-7:41
MERGED from [com.facebook.fresco:imagepipeline:1.10.0] C:\Users\Preferred\.gradle\caches\transforms-1\files-1.1\imagepipeline-1.10.0.aar\e5f9dc47bc7db5fa42ae9d45dbd0d1bf\AndroidManifest.xml:5:5-7:41
MERGED from [com.facebook.fresco:imagepipeline-base:1.10.0] C:\Users\Preferred\.gradle\caches\transforms-1\files-1.1\imagepipeline-base-1.10.0.aar\bfa89b78d332df3b762a2b0fa1e71906\AndroidManifest.xml:5:5-7:41
MERGED from [com.facebook.fresco:imagepipeline-base:1.10.0] C:\Users\Preferred\.gradle\caches\transforms-1\files-1.1\imagepipeline-base-1.10.0.aar\bfa89b78d332df3b762a2b0fa1e71906\AndroidManifest.xml:5:5-7:41
MERGED from [com.facebook.soloader:soloader:0.5.1] C:\Users\Preferred\.gradle\caches\transforms-1\files-1.1\soloader-0.5.1.aar\8ea146858b2037a15f155d3d5aaf7805\AndroidManifest.xml:7:5-9:41
MERGED from [com.facebook.soloader:soloader:0.5.1] C:\Users\Preferred\.gradle\caches\transforms-1\files-1.1\soloader-0.5.1.aar\8ea146858b2037a15f155d3d5aaf7805\AndroidManifest.xml:7:5-9:41
MERGED from [android.arch.lifecycle:livedata-core:1.1.0] C:\Users\Preferred\.gradle\caches\transforms-1\files-1.1\livedata-core-1.1.0.aar\4b7daa5e0205d7c6108a6eec1fa02b7c\AndroidManifest.xml:20:5-44
MERGED from [android.arch.lifecycle:livedata-core:1.1.0] C:\Users\Preferred\.gradle\caches\transforms-1\files-1.1\livedata-core-1.1.0.aar\4b7daa5e0205d7c6108a6eec1fa02b7c\AndroidManifest.xml:20:5-44
MERGED from [android.arch.lifecycle:viewmodel:1.1.0] C:\Users\Preferred\.gradle\caches\transforms-1\files-1.1\viewmodel-1.1.0.aar\f6224390e4185879134570fb0a8261a4\AndroidManifest.xml:20:5-44
MERGED from [android.arch.lifecycle:viewmodel:1.1.0] C:\Users\Preferred\.gradle\caches\transforms-1\files-1.1\viewmodel-1.1.0.aar\f6224390e4185879134570fb0a8261a4\AndroidManifest.xml:20:5-44
MERGED from [com.facebook.fresco:fbcore:1.10.0] C:\Users\Preferred\.gradle\caches\transforms-1\files-1.1\fbcore-1.10.0.aar\a75d1a51cce159759d80e5f4481685eb\AndroidManifest.xml:5:5-7:41
MERGED from [com.facebook.fresco:fbcore:1.10.0] C:\Users\Preferred\.gradle\caches\transforms-1\files-1.1\fbcore-1.10.0.aar\a75d1a51cce159759d80e5f4481685eb\AndroidManifest.xml:5:5-7:41
MERGED from [android.arch.lifecycle:runtime:1.1.0] C:\Users\Preferred\.gradle\caches\transforms-1\files-1.1\runtime-1.1.0.aar\6fcd81995f11ac7626f4addedd385155\AndroidManifest.xml:20:5-44
MERGED from [android.arch.lifecycle:runtime:1.1.0] C:\Users\Preferred\.gradle\caches\transforms-1\files-1.1\runtime-1.1.0.aar\6fcd81995f11ac7626f4addedd385155\AndroidManifest.xml:20:5-44
MERGED from [android.arch.core:runtime:1.1.0] C:\Users\Preferred\.gradle\caches\transforms-1\files-1.1\runtime-1.1.0.aar\58f89463a3668739ad60ce311aad2132\AndroidManifest.xml:20:5-44
MERGED from [android.arch.core:runtime:1.1.0] C:\Users\Preferred\.gradle\caches\transforms-1\files-1.1\runtime-1.1.0.aar\58f89463a3668739ad60ce311aad2132\AndroidManifest.xml:20:5-44
INJECTED from D:\DemoProjects\ReactNative\Albums\android\app\src\main\AndroidManifest.xml
INJECTED from D:\DemoProjects\ReactNative\Albums\android\app\src\main\AndroidManifest.xml
	android:targetSdkVersion
		INJECTED from D:\DemoProjects\ReactNative\Albums\android\app\src\main\AndroidManifest.xml
		ADDED from D:\DemoProjects\ReactNative\Albums\android\app\src\main\AndroidManifest.xml
		INJECTED from D:\DemoProjects\ReactNative\Albums\android\app\src\main\AndroidManifest.xml
	android:minSdkVersion
		INJECTED from D:\DemoProjects\ReactNative\Albums\android\app\src\main\AndroidManifest.xml
		ADDED from D:\DemoProjects\ReactNative\Albums\android\app\src\main\AndroidManifest.xml
		INJECTED from D:\DemoProjects\ReactNative\Albums\android\app\src\main\AndroidManifest.xml
uses-permission#android.permission.WRITE_EXTERNAL_STORAGE
IMPLIED from D:\DemoProjects\ReactNative\Albums\android\app\src\main\AndroidManifest.xml:1:1-26:12 reason: org.webkit.android_jsc has a targetSdkVersion < 4
uses-permission#android.permission.READ_PHONE_STATE
IMPLIED from D:\DemoProjects\ReactNative\Albums\android\app\src\main\AndroidManifest.xml:1:1-26:12 reason: org.webkit.android_jsc has a targetSdkVersion < 4
uses-permission#android.permission.READ_EXTERNAL_STORAGE
IMPLIED from D:\DemoProjects\ReactNative\Albums\android\app\src\main\AndroidManifest.xml:1:1-26:12 reason: org.webkit.android_jsc requested WRITE_EXTERNAL_STORAGE
